{
    "KPlugin": {
        "Authors": [
            {
                "Email": "fella@posteo.de",
                "Name": "Tobias Fella",
                "Name[ar]": "Tobias Fella",
                "Name[az]": "Tobias Fella",
                "Name[bg]": "Tobias Fella",
                "Name[ca@valencia]": "Tobias Fella",
                "Name[ca]": "Tobias Fella",
                "Name[cs]": "Tobias Fella",
                "Name[en_GB]": "Tobias Fella",
                "Name[es]": "Tobias Fella",
                "Name[eu]": "Tobias Fella",
                "Name[fi]": "Tobias Fella",
                "Name[fr]": "Tobias Fella",
                "Name[hu]": "Tobias Fella",
                "Name[ia]": "Tobias Fella",
                "Name[is]": "Tobias Fella",
                "Name[it]": "Tobias Fella",
                "Name[ka]": "Tobias Fella",
                "Name[ko]": "Tobias Fella",
                "Name[nl]": "Tobias Fella",
                "Name[nn]": "Tobias Fella",
                "Name[pl]": "Tobias Fella",
                "Name[pt]": "Tobias Fella",
                "Name[pt_BR]": "Tobias Fella",
                "Name[ro]": "Tobias Fella",
                "Name[ru]": "Tobias Fella",
                "Name[sk]": "Tobias Fella",
                "Name[sl]": "Tobias Fella",
                "Name[sv]": "Tobias Fella",
                "Name[ta]": "டோபியாஸ் ஃபெல்லா",
                "Name[tr]": "Tobias Fella",
                "Name[uk]": "Tobias Fella",
                "Name[x-test]": "xxTobias Fellaxx",
                "Name[zh_CN]": "Tobias Fella",
                "Name[zh_TW]": "Tobias Fella"
            }
        ],
        "Category": "System Information",
        "Description": "Wi-Fi Hotspots",
        "Description[ar]": "نقاط فعالة لواي فاي",
        "Description[az]": "Wi-Fi qoşulma nöqtələri",
        "Description[bg]": "Wi-Fi точка за достъп",
        "Description[ca@valencia]": "Punts d'accés Wi-Fi",
        "Description[ca]": "Punts d'accés Wi-Fi",
        "Description[cs]": "Hostpoty Wi-Fi",
        "Description[en_GB]": "Wi-Fi Hotspots",
        "Description[es]": "Puntos de acceso wifi",
        "Description[eu]": "Wi-Fi berogunea",
        "Description[fi]": "Langattomat tukiasemat",
        "Description[fr]": "Points d'accès Wifi",
        "Description[hu]": "Wi-Fi hotspotok",
        "Description[ia]": "Hotspots de Wi-Fi",
        "Description[is]": "Wi-Fi aðgangsstaðir (hotspot)",
        "Description[it]": "Hotspot Wi-Fi",
        "Description[ka]": "Wi-Fi ჰოტსპოტები",
        "Description[ko]": "Wi-Fi 핫스팟",
        "Description[nl]": "Wi-Fi hotspots",
        "Description[nn]": "Wi-Fi-trådlaussoner",
        "Description[pl]": "Hotspoty Wi-Fi",
        "Description[pt]": "Pontos de Acesso Wi-Fi",
        "Description[pt_BR]": "Pontos de acesso Wi-Fi",
        "Description[ro]": "Hotspot-uri Wi-Fi",
        "Description[ru]": "Точки доступа Wi-Fi",
        "Description[sk]": "Prístupové body Wi-Fi",
        "Description[sl]": "Vroče točke Wi-Fi",
        "Description[sv]": "WIFI-accesspunkter",
        "Description[ta]": "அருகலை ஹாட்ஸ்பாட்டுகள்",
        "Description[tr]": "Wi-Fi Taşınabilir Ağları",
        "Description[uk]": "Хот-споти Wi-Fi",
        "Description[x-test]": "xxWi-Fi Hotspotsxx",
        "Description[zh_CN]": "Wi-Fi 热点",
        "Description[zh_TW]": "Wi-Fi 熱點",
        "EnabledByDefault": true,
        "FormFactors": [
            "handset",
            "tablet",
            "mediacenter"
        ],
        "Icon": "network-wireless-hotspot",
        "Id": "kcm_mobile_hotspot",
        "License": "GPL",
        "Name": "Hotspot",
        "Name[ar]": "نقطة فعالة",
        "Name[az]": "Qoşulma nöqtəsi",
        "Name[bg]": "Точка за достъп",
        "Name[ca@valencia]": "Punt d'accés",
        "Name[ca]": "Punt d'accés",
        "Name[cs]": "Hotspot",
        "Name[da]": "Internetdeling",
        "Name[de]": "Hotspot",
        "Name[en_GB]": "Hotspot",
        "Name[es]": "Punto de acceso",
        "Name[et]": "Pääsupunkt",
        "Name[eu]": "Berogunea",
        "Name[fi]": "Tukiasema",
        "Name[fr]": "Point d'accès",
        "Name[hsb]": "Hotspot",
        "Name[hu]": "Hotspot",
        "Name[ia]": "Hotspot",
        "Name[id]": "Hotspot",
        "Name[is]": "Aðgangsstaður",
        "Name[it]": "Hotspot",
        "Name[ka]": "ჰოტსპოტი",
        "Name[ko]": "핫스팟",
        "Name[lt]": "Prieigos taškas",
        "Name[nl]": "Hotspot",
        "Name[nn]": "Trådlaussone",
        "Name[pa]": "ਹਾਟਸਪਾਟ",
        "Name[pl]": "Hotspot",
        "Name[pt]": "Ponto de Acesso",
        "Name[pt_BR]": "Ponto de acesso",
        "Name[ro]": "Hotspot",
        "Name[ru]": "Точка доступа Wi-Fi",
        "Name[sk]": "Prístupový bod",
        "Name[sl]": "Vroča točka",
        "Name[sv]": "Accesspunkt",
        "Name[ta]": "ஹாட்ஸ்பாட்",
        "Name[tr]": "Kişisel Erişim Noktası",
        "Name[uk]": "Хот-спот",
        "Name[x-test]": "xxHotspotxx",
        "Name[zh_CN]": "热点",
        "Name[zh_TW]": "熱點",
        "ServiceTypes": [
            "KCModule"
        ],
        "Version": "0.1",
        "Website": "https://plasma-mobile.org/"
    },
    "X-Plasma-MainScript": "ui/main.qml",
    "X-Plasma-Package": "kcm_mobile_hotspot"
}
